…
**Note:** `ggplot` functions are chained using a `+` sign. This is because `ggplot` does not pass an object to a function but add different layers on top of each other.

We will use the `penguins` dataset from the `palmerpenguins` package in this example. It is a dataset of size measurements for three penguins species, namely *Pygoscelis adeliae* (adelie penguin), *Pygoscelis papua* (gentoo penguin) and *Pygoscelis antarctica* (chinstrap penguin).

First, install and load the package:

```r
install.packages("palmerpenguins")
library(palmerpenguins)
```

```r
penguins
# # A tibble: 344 x 8
#    species island bill_length_mm bill_depth_mm flipper_length_… body_mass_g
#    <fct>   <fct>           <dbl>         <dbl>            <int>       <int>
#  1 Adelie  Torge…           39.1          18.7              181        3750
#  2 Adelie  Torge…           39.5          17.4              186        3800
#  3 Adelie  Torge…           40.3          18                195        3250
#  4 Adelie  Torge…           NA            NA                 NA          NA
#  5 Adelie  Torge…           36.7          19.3              193        3450
#  6 Adelie  Torge…           39.3          20.6              190        3650
#  7 Adelie  Torge…           38.9          17.8              181        3625
#  8 Adelie  Torge…           39.2          19.6              195        4675
#  9 Adelie  Torge…           34.1          18.1              193        3475
# 10 Adelie  Torge…           42            20.2              190        4250
# # … with 334 more rows, and 2 more variables: sex <fct>, year <int>
```
…
